Bootstrap | PSQF 6243
…
confint(timss_model)

##                  2.5 %     97.5 %
## (Intercept) 580.114047 647.012616
## ASDAGE       -9.957345  -3.415915

Resample these data

For the astronauts data, to resample, a similar idea can be made. Essentially, we are treating these data as a random sample of some population of space missions. We again, would resample, with replacement, which means that multiple missions would likely show up in the resampling procedure.

slice_sample(timss, n = nrow(timss), replace = TRUE) %>% 
  count(IDSTUD)

## # A tibble: 6,356 × 2
##    IDSTUD     n
##     <dbl> <int>
##  1  10105     3
##  2  10108     1
##  3  10110     1
##  4  10111     1
##  5  10112     2
##  6  10113     1
##  7  10116     2
##  8  10117     1
##  9  10118     1
## 10  10119     1
## # … with 6,346 more rows
…
