Logistic Regression | PSQF 6243
…
gss_cat_r

## # A tibble: 20,863 × 11
##     year marital         age race  rincome        partyid    relig denom tvhours
##    <int> <fct>         <int> <fct> <fct>          <fct>      <fct> <fct>   <int>
##  1  2000 Never married    26 White $8000 to 9999  Ind,near … Prot… Sout…      12
##  2  2000 Divorced         48 White $8000 to 9999  Not str r… Prot… Bapt…      NA
##  3  2000 Widowed          67 White Not applicable Independe… Prot… No d…       2
##  4  2000 Never married    39 White Not applicable Ind,near … Orth… Not …       4
##  5  2000 Divorced         25 White Not applicable Not str d… None  Not …       1
##  6  2000 Married          25 White $20000 - 24999 Strong de… Prot… Sout…      NA
##  7  2000 Never married    36 White $25000 or more Not str r… Chri… Not …       3
##  8  2000 Divorced         44 White $7000 to 7999  Ind,near … Prot… Luth…      NA
##  9  2000 Married          44 White $25000 or more Not str d… Prot… Other       0
## 10  2000 Married          47 White $25000 or more Strong re… Prot… Sout…       3
## # ℹ 20,853 more rows
## # ℹ 2 more variables: partyid_collapse <fct>, ind_binary <dbl>
…
## # A tibble: 6 × 12
##    year marital   age race  rincome partyid relig denom tvhours partyid_collapse
##   <int> <fct>   <int> <fct> <fct>   <fct>   <fct> <fct>   <int> <fct>           
## 1  2000 Never …    26 White $8000 … Ind,ne… Prot… Sout…      12 ind             
## 2  2000 Divorc…    48 White $8000 … Not st… Prot… Bapt…      NA rep             
## 3  2000 Widowed    67 White Not ap… Indepe… Prot… No d…       2 ind             
## 4  2000 Never …    39 White Not ap… Ind,ne… Orth… Not …       4 ind             
## 5  2000 Divorc…    25 White Not ap… Not st… None  Not …       1 dem             
## 6  2000 Married    25 White $20000… Strong… Prot… Sout…      NA dem             
## # ℹ 2 more variables: ind_binary <dbl>, prob <dbl>

gss_cat_m |> 
  distinct(age, marital, prob)

## # A tibble: 342 × 3
##      age marital        prob
##    <int> <fct>         <dbl>
##  1    26 Never married 0.484
##  2    48 Divorced      0.420
##  3    67 Widowed       0.322
##  4    39 Never married 0.439
##  5    25 Divorced      0.499
##  6    25 Married       0.459
##  7    36 Never married 0.450
##  8    44 Divorced      0.433
##  9    44 Married       0.394
## 10    47 Married       0.385
## # ℹ 332 more rows
…
