Categorical Interactions - Class | PSQF 6243
…
Plot those model implied means

count(bike, passholder_type)

## # A tibble: 3 × 2
##   passholder_type      n
##   <chr>            <int>
## 1 Day Pass         36468
## 2 Indego30        215556
## 3 Indego365        45768

broom::augment(bike_lm_3way)

## # A tibble: 297,792 × 10
##    duration bike_type trip_route_category passholder_type .fitted .resid    .hat
##       <dbl> <chr>     <chr>               <chr>             <dbl>  <dbl>   <dbl>
##  1       11 standard  One Way             Indego30           14.8  -3.83 7.68e-6
##  2        4 standard  One Way             Indego30           14.8 -10.8  7.68e-6
##  3       56 electric  One Way             Indego30           14.2  41.8  1.47e-5
##  4       55 electric  One Way             Indego30           14.2  40.8  1.47e-5
##  5        5 standard  One Way             Indego365          12.0  -6.96 3.32e-5
##  6       13 electric  One Way             Indego30           14.2  -1.21 1.47e-5
##  7       12 standard  One Way             Indego30           14.8  -2.83 7.68e-6
##  8       29 electric  One Way             Indego30           14.2  14.8  1.47e-5
##  9       13 standard  One Way             Indego30           14.8  -1.83 7.68e-6
## 10        7 electric  One Way             Indego30           14.2  -7.21 1.47e-5
## # … with 297,782 more rows, and 3 more variables: .sigma <dbl>, .cooksd <dbl>,
## #   .std.resid <dbl>
…
